Using seplyr to Program Over dplyr • seplyr
…
## 
## Attaching package: 'wrapr'

## The following object is masked from 'package:dplyr':
## 
##     coalesce

starwars %>%
  group_by_se("homeworld") %>%
  summarize_se(c("mean_height" := "mean(height, na.rm = TRUE)",
                 "mean_mass" := "mean(mass, na.rm = TRUE)",
                 "count" := "n()"))

## # A tibble: 49 x 4
##    homeworld      mean_height mean_mass count
##    <chr>                <dbl>     <dbl> <int>
##  1 Alderaan              176.      64       3
##  2 Aleen Minor            79       15       1
##  3 Bespin                175       79       1
##  4 Bestine IV            180      110       1
##  5 Cato Neimoidia        191       90       1
##  6 Cerea                 198       82       1
##  7 Champala              196      NaN       1
##  8 Chandrila             150      NaN       1
##  9 Concord Dawn          183       79       1
## 10 Corellia              175       78.5     2
## # … with 39 more rows
…
starwars %>% 
  grouped_mean(grouping_variables = c("eye_color", "skin_color"),
               value_variables = c("mass", "birth_year"))

## # A tibble: 53 x 5
##    eye_color skin_color       mean_mass mean_birth_year count
##    <chr>     <chr>                <dbl>           <dbl> <int>
##  1 black     green                 80.5            44       2
##  2 black     grey                  78.7           NaN       4
##  3 black     none                 NaN             NaN       1
##  4 black     orange                80              22       1
##  5 black     red, blue, white      57             NaN       1
##  6 black     white, blue          NaN             NaN       1
##  7 blue      blue                 NaN             NaN       1
##  8 blue      brown                136             NaN       1
##  9 blue      dark                  50             NaN       1
## 10 blue      fair                  90              62.6    10
## # … with 43 more rows
…
