tally/count standard interface. — add_tally_se • seplyr
…
    Details

    Note: dplyr::count, dplyr::add_count,
dplyr::tally, and dplyr::add_tally are not S3
methods, so it may not be practical to re-dispatch seplyr calls
to these dplyr implementations.

    See also

    add_tally

    Examples

datasets::iris %.>% add_tally_se(.)
#> # A tibble: 150 x 6
#>    Sepal.Length Sepal.Width Petal.Length Petal.Width Species     n
#>           <dbl>       <dbl>        <dbl>       <dbl> <fct>   <int>
#>  1         5.10        3.50         1.40       0.200 setosa    150
#>  2         4.90        3.00         1.40       0.200 setosa    150
#>  3         4.70        3.20         1.30       0.200 setosa    150
#>  4         4.60        3.10         1.50       0.200 setosa    150
#>  5         5.00        3.60         1.40       0.200 setosa    150
#>  6         5.40        3.90         1.70       0.400 setosa    150
#>  7         4.60        3.40         1.40       0.300 setosa    150
#>  8         5.00        3.40         1.50       0.200 setosa    150
#>  9         4.40        2.90         1.40       0.200 setosa    150
#> 10         4.90        3.10         1.50       0.100 setosa    150
#> # ... with 140 more rows
…
